{
  "general": {
    "validation": {
      "valid": false,
      "errors": [
        "Host h3: No periodicity found in the streams received",
        "Stream 1---2---6001 (-> vid 1908): max latency (0.002894524000112142) higher than allowed (0.002)",
        "Stream 1---2---6000 (-> vid 1907): max latency (0.002890524000122241) higher than allowed (0.0025)"
      ]
    }
  },
  "sim_parameters": {
    "**.displayAddresses": "false",
    "**.verbose": "false",
    "**.promiscuous": "true",
    "**.registerProtocol": "true",
    "**.*.clock.clockRate": "\"1us\"",
    "**.h3.eth.address": "\"aa:aa:aa:aa:aa:bb\"",
    "**.h1.eth.address": "\"12:23:34:45:56:67\"",
    "**.h2.eth.address": "\"aa:bb:cc:dd:ee:aa\"",
    "**.*.processingDelay[*].delay": "5us",
    "**.filteringDatabase.database": "xmldoc(\"xml/routing.xml\", \"/filteringDatabases/\")",
    "**.filteringDatabase.cycle": "xmldoc(\"xml/tas.xml\", \"/schedule/\")",
    "**.gateController.initialSchedule": "xmldoc(\"xml/tas.xml\")",
    "**.gateController.enableHoldAndRelease": "false",
    "**.*.eth[*].queuing.tsAlgorithms[*].typename": "\"StrictPriority\"",
    "**.s2.eth[1].queuing.queuingFrames.tciToQueueMapping": "xmldoc(\"xml/tci-maps/tci-map-s2-1.xml\")",
    "**.s3.eth[0].queuing.queuingFrames.tciToQueueMapping": "xmldoc(\"xml/tci-maps/tci-map-s3-0.xml\")",
    "**.s1.eth[1].queuing.queuingFrames.tciToQueueMapping": "xmldoc(\"xml/tci-maps/tci-map-s1-1.xml\")",
    "**.*.eth[*].queuing.queues[*].bufferCapacity": "365280b",
    "**.*.eth[*].queuing.queues[*].expressQueue": "true",
    "**.*.eth[*].mac.enablePreemptingFrames": "false",
    "**.*.trafGenSchedApp.jitter": "0.0009",
    "**.*.eth[*].queuing.gateController.jitter": "0.0009",
    "**.*.trafGenSchedApp.initialSchedule": "xmldoc(\"xml/traf-gen.xml\")"
  },
  "streams": {
    "1908": {
      "latency_stats": {
        "min": 0.0011225240000385384,
        "max": 0.002894524000112142,
        "mean": 0.0020132841111124085,
        "median": 0.0020155240000852004,
        "variance": 1.3937480526887144e-07,
        "std_deviation": 0.0003733293522733934,
        "interval_size": 0.0017720000000736036,
        "jitter": 0.0008907601110738701,
        "packages_received": 3600
      },
      "udp_dest_port": 6001,
      "name": "1---2---6001",
      "max_allowed_latency": 2000000,
      "talker": "h2",
      "listener": "h3"
    },
    "1907": {
      "latency_stats": {
        "min": 0.0011305240000183403,
        "max": 0.002890524000122241,
        "mean": 0.0020036455555588724,
        "median": 0.001998523999986901,
        "variance": 1.3296892311009876e-07,
        "std_deviation": 0.0003646490410108036,
        "interval_size": 0.0017600000001039007,
        "jitter": 0.0008868784445633686,
        "packages_received": 3600
      },
      "udp_dest_port": 6000,
      "name": "1---2---6000",
      "max_allowed_latency": 2500000,
      "talker": "h1",
      "listener": "h3"
    }
  },
  "hosts": {
    "h3": {
      "received_periodically": {
        "is_periodic": false,
        "max-period-length": 250,
        "skipped": "first 0s"
      }
    }
  },
  "switches": {
    "s1": {
      "port_1": {
        "queue_7": {
          "queueLength": {
            "min": 0,
            "max": 1,
            "mean": 0.49993056519927787,
            "median": 0,
            "variance": 0.2500347174003611,
            "std_deviation": 0.5000347161951469,
            "interval_size": 1,
            "jitter": 0.5000694348007222
          },
          "queueingTime": {
            "min": 8.8476e-05,
            "max": 0.001865476,
            "mean": 0.0009826657222222223,
            "median": 0.000982476,
            "variance": 1.3622614265621623e-07,
            "std_deviation": 0.0003690882586268713,
            "interval_size": 0.001777,
            "jitter": 0.0008941897222222223
          }
        }
      }
    },
    "s2": {
      "port_1": {
        "queue_7": {
          "queueLength": {
            "min": 0,
            "max": 1,
            "mean": 0.49993056519927787,
            "median": 0,
            "variance": 0.2500347174003611,
            "std_deviation": 0.5000347161951469,
            "interval_size": 1,
            "jitter": 0.5000694348007222
          },
          "queueingTime": {
            "min": 0.000113476,
            "max": 0.001872476,
            "mean": 0.000990266,
            "median": 0.000992476,
            "variance": 1.3299105674909698e-07,
            "std_deviation": 0.0003646793889831135,
            "interval_size": 0.0017590000000000001,
            "jitter": 0.00088221
          }
        }
      }
    },
    "s3": {
      "port_0": {
        "queue_7": {
          "queueLength": {
            "min": 0,
            "max": 2,
            "mean": 0.9999305603777515,
            "median": 1,
            "variance": 0.5000694396222485,
            "std_deviation": 0.7071558807096555,
            "interval_size": 2,
            "jitter": 1.0000694396222485
          },
          "queueingTime": {
            "min": 0.000111996,
            "max": 0.001866476,
            "mean": 0.0009864269722222223,
            "median": 0.000983996,
            "variance": 1.3533856705836844e-07,
            "std_deviation": 0.00036788390432087193,
            "interval_size": 0.0017544799999999999,
            "jitter": 0.0008800490277777776
          }
        }
      }
    }
  }
}