{
  "title": [
    "Scenario 2 Schedule",
    "Scenario 2 Modified Schedule"
  ],
  "xlabel": "Time Slot",
  "mode": "schedule_mod",
  "x": [
    "H1 -> S1 (F1)",
    "H2 -> S2 (F2)",
    "S1 -> S3",
    "S2 -> S3",
    "S3 -> H3"
  ],
  "y": [
    {
      "offset": [
        0,
        0,
        1,
        1,
        2
      ],
      "length": [
        1,
        1,
        1,
        1,
        2
      ]
    },
    {
      "offset": [
        0,
        1,
        1,
        2,
        2
      ],
      "length": [
        1,
        1,
        1,
        1,
        2
      ],
      "color": [
        "black", "blue", "black", "blue", "black"
      ]
    }
  ]
}