{
  "title": "Mean and Standard Deviation of the Queue Lengths (Slot Length 16 µs)",
  "xlabel": "Clock Jitter [µs]",
  "ylabel": "Queue Length",
  "flags": [
    "grid_y_minor"
  ],
  "scale": "linear",
  "mode": "err_bars",
  "x": [
    0,
    1,
    2,
    3,
    4,
    5,
    6,
    7,
    8,
    9,
    10,
    11,
    12,
    13,
    14,
    15,
    16,
    17,
    18,
    19,
    20
  ],
  "y": {
    "S11 -> S12": {
      "fmt": "-k",
      "mean": [
        0.49999710649822626,
        0.49999710649822626,
        0.49999710649822626,
        0.49999710649822626,
        0.49999710649822626,
        0.49999710649822626,
        0.49999710649822626,
        0.49999710649822626,
        43.16722653915122,
        43.262839344718,
        43.31514016960588,
        43.360568249115126,
        43.41226300064887,
        43.452428882097095,
        43.49204120910223,
        43.53256518446392,
        43.564536375478625,
        12.721854304635762,
        7.323076923076923,
        5.057356608478803,
        3.216326530612245
      ],
      "std_deviation": [
        0.5000014467487938,
        0.5000014467487938,
        0.5000014467487938,
        0.5000014467487938,
        0.5000014467487938,
        0.5000014467487938,
        0.5000014467487938,
        0.5000014467487938,
        2.0016617569869477,
        1.542227075734086,
        1.3700888484808855,
        1.3009704816761647,
        1.1726964884536362,
        1.130616978539778,
        1.107384187065039,
        1.0234960798229815,
        1.0072947215936974,
        12.717267725960555,
        6.912855116288691,
        3.915252481643102,
        2.913742659601806
      ]
    },
    "S11 -> S21": {
      "fmt": "-r",
      "mean": [
        0.49999710649822626,
        0.49999710649822626,
        0.49999710649822626,
        0.49999710649822626,
        0.49999710649822626,
        0.49999710649822626,
        0.49999710649822626,
        0.49999710649822626,
        43.095798259082464,
        43.25831407171637,
        43.30965995579028,
        43.35853680362908,
        43.40672183921144,
        43.451606511177324,
        43.489650545739615,
        43.52613173171937,
        43.55634540969524,
        13.343124165554071,
        8.045996592844974,
        4.513647642679901,
        2.51417004048583
      ],
      "std_deviation": [
        0.5000014467487938,
        0.5000014467487938,
        0.5000014467487938,
        0.5000014467487938,
        0.5000014467487938,
        0.5000014467487938,
        0.5000014467487938,
        0.5000014467487938,
        2.4276790989601094,
        1.5547217980809478,
        1.4341040649730792,
        1.3333199946691783,
        1.221174464631177,
        1.1605375704800236,
        1.1422556838565379,
        1.0825699637397825,
        1.024628194014379,
        13.678646513469255,
        7.363288478786593,
        3.645577617345801,
        1.968966966218105
      ]
    },
    "S12 -> S22": {
      "fmt": "-g",
      "mean": [
        0.49999710649822626,
        0.49999710649822626,
        0.49999710649822626,
        0.49999710649822626,
        0.49999710649822626,
        0.49999710649822626,
        0.49999710649822626,
        0.49999710649822626,
        20.14694039128848,
        20.389967468461126,
        22.05890092879257,
        22.263272826532006,
        21.827787099179716,
        21.149706527119722,
        20.928096887320567,
        21.182326896342246,
        20.970242404573483,
        2.2313937753721245,
        2.078632478632479,
        2.1496259351620948,
        1.3306122448979592
      ],
      "std_deviation": [
        0.5000014467487938,
        0.5000014467487938,
        0.5000014467487938,
        0.5000014467487938,
        0.5000014467487938,
        0.5000014467487938,
        0.5000014467487938,
        0.5000014467487938,
        12.156660556800436,
        12.53292538151709,
        12.197869602842411,
        12.333548665425237,
        12.673780084670538,
        12.492386099290524,
        12.072485160738935,
        12.281762706602764,
        12.534434269789616,
        1.7643840386343785,
        1.712355836339136,
        2.556864507502438,
        1.3309376827722694
      ]
    },
    "S21 -> S22": {
      "fmt": "-b",
      "mean": [
        0.49999710649822626,
        0.49999710649822626,
        0.49999710649822626,
        0.49999710649822626,
        0.49999710649822626,
        0.49999710649822626,
        0.49999710649822626,
        0.49999710649822626,
        20.132568152756072,
        22.096386548771147,
        21.091311788986207,
        21.64268744411802,
        21.53111759458857,
        20.75621985722772,
        20.91067512106143,
        20.5814880425155,
        21.282435067758083,
        2.1655172413793102,
        2.9693356047700172,
        1.6451612903225807,
        1.5748987854251013
      ],
      "std_deviation": [
        0.5000014467487938,
        0.5000014467487938,
        0.5000014467487938,
        0.5000014467487938,
        0.5000014467487938,
        0.5000014467487938,
        0.5000014467487938,
        0.5000014467487938,
        11.791982338618142,
        12.616899957018006,
        12.237137103617043,
        11.891952376582047,
        11.798639738512698,
        12.411089217972107,
        12.573315951090184,
        13.04508620292632,
        12.6091005560035,
        2.1867689563096673,
        3.0895198940244972,
        1.471333088056634,
        1.5280099876094697
      ]
    },
    "S22 -> H2": {
      "fmt": "-y",
      "mean": [
        0.499998553244927,
        0.499998553244927,
        0.499998553244927,
        0.499998553244927,
        0.499998553244927,
        0.499998553244927,
        0.499998553244927,
        0.499998553244927,
        0.4999984536162185,
        0.4999982560714871,
        0.4999980598723396,
        0.49999786285514003,
        0.49999766471904233,
        0.49999746800828465,
        0.5005979587490376,
        0.5026476124575591,
        0.5099130456557259,
        0.5201640464798359,
        0.5217762596071733,
        0.5242839352428393,
        0.5274949083503055
      ],
      "std_deviation": [
        0.5000007233770133,
        0.5000007233770133,
        0.5000007233770133,
        0.5000007233770133,
        0.5000007233770133,
        0.5000007233770133,
        0.5000007233770133,
        0.5000007233770133,
        0.5000007731912929,
        0.5000008719634962,
        0.5000009700628892,
        0.5000010685712881,
        0.5000011676391155,
        0.500001265994255,
        0.5006013384800446,
        0.502638056799963,
        0.5098232025236543,
        0.519888418411479,
        0.5214990763650376,
        0.5240791273739902,
        0.5275643277098836
      ]
    }
  }
}