{
  "title": "Max - Min Delay in Scenario 1 and 2 with a Slot Length of 20µs",
  "xlabel": "Clock Jitter [µs]",
  "ylabel": "Max - Min Delay [µs]",
  "yfac": 1000000,
  "scale": "linear",
  "x": [
    0,
    1,
    2,
    3,
    4,
    5,
    6,
    7,
    8,
    9,
    10
  ],
  "y": {
    "Flow 1 (Scenario 1)": {
      "line_style": "-",
      "marker": 10,
      "color": "blue",
      "data": [
        7.275957614183426e-12,
        2.0000024960609153e-06,
        4.000008630100638e-06,
        6.000002258588211e-06,
        8.000009984243661e-06,
        1.0000003385357559e-05,
        1.2000011338386685e-05,
        1.4000004739500582e-05,
        1.60000090545509e-05,
        1.8000006093643606e-05,
        2.0000010408693925e-05
      ]
    },
    "Flow 2 (Scenario 1)": {
      "line_style": ":",
      "marker": 11,
      "color": "black",
      "data": [
        3.637978807091713e-12,
        2.0000024960609153e-06,
        4.000003173132427e-06,
        6.000002485961886e-06,
        8.000002708286047e-06,
        1.0000003385357559e-05,
        1.200000406242907e-05,
        1.4000004739500582e-05,
        1.6000005416572094e-05,
        1.8000006093643606e-05,
        2.0000006770715117e-05
      ]
    },
    "Flow 1 (Scenario 2)": {
      "line_style": "-",
      "marker": "^",
      "color": "green",
      "data": [
        1.8189894035458565e-12,
        1.0520003343117423e-05,
        1.2520004020188935e-05,
        1.4520003787765745e-05,
        1.6520004464837257e-05,
        1.852000059443526e-05,
        2.052000490948558e-05,
        2.2520001948578283e-05,
        2.4520006263628602e-05,
        2.6520001483731903e-05,
        2.8520007617771626e-05
      ]
    },
    "Flow 2 (Scenario 2)": {
      "line_style": ":",
      "marker": "v",
      "color": "red",
      "data": [
        3.637978807091713e-12,
        1.0520003343117423e-05,
        1.2520004020188935e-05,
        1.4520003787765745e-05,
        1.6520004464837257e-05,
        1.852000059443526e-05,
        2.052000490948558e-05,
        2.2520001948578283e-05,
        2.4520006263628602e-05,
        2.6520001483731903e-05,
        2.8520007617771626e-05
      ]
    }
  }
}