{
  "title": "Impact of the clock jitter on the End to End delay in Scenario 3 with a slot length of 20µs",
  "xlabel": "Clock Jitter in µs",
  "ylabel": "End to End Delay in s",
  "x": [
    0,
    1,
    2,
    3,
    4,
    5,
    6,
    7,
    8,
    9,
    10,
    11,
    12,
    13,
    14,
    15,
    16,
    17,
    18,
    19,
    20
  ],
  "y": {
    "Flow 1 max": {
      "line_style": ":",
      "marker": "^",
      "color": "black",
      "data": [
        0.000649,
        0.000650,0.000651,0.000652,0.000653,0.000654,0.000655,0.000656,0.000657,0.000658,0.000659,0.000660,
        27,74,186,449,536,559,587,614,657
      ]
    },
    "Flow 2 max": {
      "line_style": "--",
      "marker": "^",
      "color": "black",
      "data": [
        0.000642,0.000643,0.000644,0.000645,0.000646,0.000647,0.000648,0.000649,0.000650,0.000651,0.000652,0.000653,
        30,77,206,436,506,545,584,630,679

      ]
    }
  }
}