{
  "title": "Impact of the slot length on the End to End delay in Scenario 3",
  "xlabel": "Slot Length in µs",
  "ylabel": "End to End Delay in s",
  "x": [
    16,
    20,
    25,
    50,
    100
  ],
  "y": {
    "Flow 1 max": {
      "line_style": ":",
      "marker": "^",
      "color": "black",
      "data": [
        0.000520,
        0.000649,
        0.0008085,
        0.001609,
        0.0032
      ]
    },
    "Flow 2 max": {
      "line_style": "--",
      "marker": "^",
      "color": "black",
      "data": [
        0.000518,
        0.000642,
        0.000797,
        0.00157,
        0.0031
      ]
    }
  }
}