{
  "title": "Impact of the clock jitter on the End to End delay in Scenario 4 with a slot length of 16µs",
  "xlabel": "Clock Jitter in µs",
  "ylabel": "End to End Delay in s",
  "x": [
    0,
    1,
    2,
    3,
    4,
    5,
    6,
    7,
    8,
    9,
    10,
    11,
    12,
    13,
    14,
    15,
    16,
    17,
    18,
    19,
    20
  ],
  "y": {
    "Flow 1 max": {
      "line_style": ":",
      "marker": "^",
      "color": "black",
      "data": [
        0.000089,
        0.000091,
        1,
        1,
        1,
        1,
        1,
        1,
        125,
        149,
        180,
        194,
        232,
        225,
        246,
        265,
        283,
        304,
        311,
        321,
        331
      ]
    },
    "Flow 2 max": {
      "line_style": "--",
      "marker": "^",
      "color": "black",
      "data": [
        0.000102,
        0.000103,
        0.000104,
        0.000105,
        0.000106,
        0.000107,
        0.000108,
        0.000109,
        133,
        155,
        169,
        198,
        209,
        226,
        248,
        270,
        295,
        318,
        341,
        350,
        359
      ]
    }
  }
}