[
  {
    "switch": "s1",
    "controls": [
      {
        "port": "0",
        "entries": [
          {
            "gate-status": "11111111"
          }
        ]
      },
      {
        "port": "1",
        "entries": [
          {
            "gate-status": "11111110",
            "length": 1000
          },
          {
            "gate-status": "11111111",
            "length": 1000
          },
          {
            "gate-status": "11111110",
            "length": 998000
          }
        ]
      }
    ]
  },
  {
    "switch": "s2",
    "controls": [
      {
        "port": "1",
        "entries": [
          {
            "gate-status": "11111110",
            "length": 1000
          },
          {
            "gate-status": "11111111",
            "length": 1000
          },
          {
            "gate-status": "11111110",
            "length": 998000
          }
        ]
      },
      {
        "port": "0",
        "entries": [
          {
            "gate-status": "11111111"
          }
        ]
      }
    ]
  },
  {
    "switch": "s3",
    "controls": [
      {
        "port": "2",
        "entries": [
          {
            "gate-status": "11111111"
          }
        ]
      },
      {
        "port": "1",
        "entries": [
          {
            "gate-status": "11111111"
          }
        ]
      },
      {
        "port": "0",
        "entries": [
          {
            "gate-status": "11111110",
            "length": 2000
          },
          {
            "gate-status": "11111111",
            "length": 2000
          },
          {
            "gate-status": "11111110",
            "length": 996000
          }
        ]
      }
    ]
  }
]