{
  "doc": [
    ""
  ],
  "config": {
    "odl_host": "192.168.33.1",
    "___odl_host": "localhost",
    "odl_port": 6633,
    "mininet_host": "vagrant@192.168.33.3",
    "___mininet_host": "localhost"
  },
  "topology": {
    "hosts": {
      "h1": "12:23:34:45:56:67",
      "h2": "aa:bb:cc:dd:ee:aa",
      "h3": "aa:aa:aa:aa:aa:bb"
    },
    "switches": [
      "s1",
      "s2",
      "s3"
    ],
    "links": [
      [
        "h1",
        "s1"
      ],
      [
        "h2",
        "s2"
      ],
      [
        "h3",
        "s3"
      ],
      [
        "s1",
        "s3"
      ],
      [
        "s2",
        "s3"
      ]
    ]
  },
  "streams": [
    {
      "dest_port": 6000,
      "source_port": 7000,
      "sender": "h1",
      "receivers": [
        "h3"
      ],
      "traffic": {
        "time_offset": 0,
        "time_interarrival": 1000000000,
        "framesize": 1024
      },
      "max_latency": 2500000,
      "name": "1---2---6000"
    },
    {
      "dest_port": 6001,
      "source_port": 7001,
      "sender": "h2",
      "receivers": [
        "h3"
      ],
      "traffic": {
        "time_offset": 0,
        "time_interarrival": 1000000000,
        "framesize": 1024
      },
      "max_latency": 2000000,
      "name": "1---2---6001"
    }
  ]
}
